%!PS-Adobe-3.0 EPSF-3.0
%%BoundingBox: 102 117 476 453
/CenterLine {dup stringwidth pop 2 div neg 0 rmoveto show} def
/Frame001 {
0.10 setlinewidth newpath
  0   0 moveto
300   0 lineto
300 300 lineto
  0 300 lineto closepath stroke
} def
/xAxis001 {
0.60 setlinewidth newpath 50 50 moveto 250 50 lineto stroke
/Helvetica-Bold findfont 10 scalefont setfont
 50.00  50.00 moveto  50.00  42.00 lineto stroke
 50.00  30.00 moveto ( 0) CenterLine
100.00  50.00 moveto 100.00  42.00 lineto stroke
100.00  30.00 moveto (10) CenterLine
150.00  50.00 moveto 150.00  42.00 lineto stroke
150.00  30.00 moveto (20) CenterLine
200.00  50.00 moveto 200.00  42.00 lineto stroke
200.00  30.00 moveto (30) CenterLine
250.00  50.00 moveto 250.00  42.00 lineto stroke
250.00  30.00 moveto (40) CenterLine ( au) show
} def
/yAxis001 {
0.60 setlinewidth newpath 50 50 moveto 50 250 lineto stroke
/Helvetica-Bold findfont 10 scalefont setfont
 50.00  50.00 moveto  42.00  50.00 lineto stroke
 20.00  47.00 moveto (-.03) show
 50.00 100.00 moveto  42.00 100.00 lineto stroke
 20.00  97.00 moveto ( .00) show
 50.00 150.00 moveto  42.00 150.00 lineto stroke
 20.00 147.00 moveto ( .03) show
 50.00 200.00 moveto  42.00 200.00 lineto stroke
 20.00 197.00 moveto ( .06) show
 50.00 250.00 moveto  42.00 250.00 lineto stroke
 20.00 247.00 moveto ( .09) show
} def
/Head001 {
/Helvetica-Bold findfont 12 scalefont setfont
150 270 moveto
(Rydberg orbitals for benzene) CenterLine
} def
/Curve001 {
[] 0 setdash
newpath 50  50 moveto 250  50 lineto 250 250 lineto 50 250 lineto closepath clip
0.50 setlinewidth newpath
    50.00   236.29 moveto
    50.12   236.29    50.23   236.28    50.35   236.28 curveto
    50.69   236.27    51.04   236.24    51.39   236.20 curveto
    51.97   236.12    52.55   236.00    53.12   235.84 curveto
    53.94   235.60    54.75   235.28    55.56   234.86 curveto
    56.60   234.33    57.64   233.65    58.68   232.82 curveto
    59.95   231.80    61.23   230.57    62.50   229.12 curveto
    64.00   227.40    65.51   225.39    67.01   223.09 curveto
    68.75   220.44    70.49   217.41    72.22   214.07 curveto
    74.19   210.28    76.16   206.08    78.12   201.59 curveto
    80.32   196.57    82.52   191.20    84.72   185.70 curveto
    87.15   179.62    89.58   173.39    92.01   167.32 curveto
    94.68   160.68    97.34   154.24   100.00   148.32 curveto
   102.89   141.88   105.79   136.07   108.68   131.06 curveto
   111.81   125.65   114.93   121.18   118.06   117.58 curveto
   121.41   113.72   124.77   110.85   128.12   108.70 curveto
   131.71   106.40   135.30   104.90   138.89   103.85 curveto
   142.71   102.72   146.53   102.09   150.35   101.65 curveto
   154.40   101.18   158.45   100.94   162.50   100.75 curveto
   166.78   100.55   171.06   100.43   175.35   100.32 curveto
   179.86   100.21   184.38   100.12   188.89   100.05 curveto
   193.63    99.98   198.38    99.94   203.12    99.91 curveto
   208.10    99.89   213.08    99.88   218.06    99.89 curveto
   223.26    99.90   228.47    99.93   233.68    99.95 curveto
   239.12    99.98   244.56   100.00   250.00   100.02 curveto
stroke
[] 0 setdash
} def
/Curve002 {
[2 2]                0 setdash
newpath 50  50 moveto 250  50 lineto 250 250 lineto 50 250 lineto closepath clip
0.50 setlinewidth newpath
    50.00   222.79 moveto
    50.12   222.79    50.23   222.79    50.35   222.78 curveto
    50.69   222.75    51.04   222.67    51.39   222.55 curveto
    51.97   222.35    52.55   222.02    53.12   221.58 curveto
    53.94   220.95    54.75   220.08    55.56   218.97 curveto
    56.60   217.56    57.64   215.76    58.68   213.63 curveto
    59.95   211.02    61.23   207.90    62.50   204.38 curveto
    64.00   200.21    65.51   195.47    67.01   190.36 curveto
    68.75   184.46    70.49   178.06    72.22   171.49 curveto
    74.19   164.04    76.16   156.36    78.12   148.87 curveto
    80.32   140.49    82.52   132.35    84.72   124.83 curveto
    87.15   116.53    89.58   109.00    92.01   102.49 curveto
    94.68    95.36    97.34    89.45   100.00    84.76 curveto
   102.89    79.66   105.79    75.98   108.68    73.45 curveto
   111.81    70.72   114.93    69.32   118.06    68.81 curveto
   121.41    68.26   124.77    68.73   128.12    69.72 curveto
   131.71    70.78   135.30    72.43   138.89    74.24 curveto
   142.71    76.17   146.53    78.28   150.35    80.28 curveto
   154.40    82.41   158.45    84.43   162.50    86.20 curveto
   166.78    88.08   171.06    89.69   175.35    91.06 curveto
   179.86    92.49   184.38    93.64   188.89    94.58 curveto
   193.63    95.57   198.38    96.33   203.12    96.93 curveto
   208.10    97.56   213.08    98.02   218.06    98.38 curveto
   223.26    98.76   228.47    99.02   233.68    99.22 curveto
   239.12    99.43   244.56    99.57   250.00    99.67 curveto
stroke
[] 0 setdash
} def
/Curve003 {
[10 5]               0 setdash
newpath 50  50 moveto 250  50 lineto 250 250 lineto 50 250 lineto closepath clip
0.50 setlinewidth newpath
    50.00   199.49 moveto
    50.12   199.49    50.23   199.49    50.35   199.48 curveto
    50.69   199.45    51.04   199.37    51.39   199.25 curveto
    51.97   199.05    52.55   198.72    53.12   198.27 curveto
    53.94   197.64    54.75   196.77    55.56   195.67 curveto
    56.60   194.25    57.64   192.46    58.68   190.34 curveto
    59.95   187.75    61.23   184.67    62.50   181.21 curveto
    64.00   177.13    65.51   172.52    67.01   167.62 curveto
    68.75   161.97    70.49   155.93    72.22   149.85 curveto
    74.19   142.97    76.16   136.04    78.12   129.51 curveto
    80.32   122.21    82.52   115.41    84.72   109.47 curveto
    87.15   102.90    89.58    97.39    92.01    93.05 curveto
    94.68    88.31    97.34    84.98   100.00    82.87 curveto
   102.89    80.57   105.79    79.69   108.68    79.77 curveto
   111.81    79.86   114.93    81.05   118.06    82.78 curveto
   121.41    84.65   124.77    87.12   128.12    89.71 curveto
   131.71    92.48   135.30    95.36   138.89    98.02 curveto
   142.71   100.85   146.53   103.42   150.35   105.55 curveto
   154.40   107.81   158.45   109.60   162.50   110.90 curveto
   166.78   112.28   171.06   113.13   175.35   113.59 curveto
   179.86   114.07   184.38   114.11   188.89   113.89 curveto
   193.63   113.65   198.38   113.14   203.12   112.50 curveto
   208.10   111.83   213.08   111.03   218.06   110.22 curveto
   223.26   109.37   228.47   108.51   233.68   107.72 curveto
   239.12   106.88   244.56   106.11   250.00   105.43 curveto
stroke
[] 0 setdash
} def
/Benzene {
gsave
50 75 translate
1 setlinewidth newpath
13.18 0.00 moveto 
6.59 11.41 lineto 
-6.59 11.41 lineto 
-13.18 0.00 lineto 
-6.59 -11.41 lineto 
6.59 -11.41 lineto 
closepath stroke
13.18 0.00 moveto 23.42 0.00 lineto stroke
6.59 11.41 moveto 11.71 20.29 lineto stroke
-6.59 11.41 moveto -11.71 20.29 lineto stroke
-13.18 0.00 moveto -23.42 0.00 lineto stroke
-6.59 -11.41 moveto -11.71 -20.29 lineto stroke
6.59 -11.41 moveto 11.71 -20.29 lineto stroke
grestore
} def
%-----------------------------------------------
% Display picture
72 72 translate 1.5 1.5 scale
%72 72 translate 0.5 0.5 scale
%Frame001
xAxis001
yAxis001
%Head001
Benzene
Curve001
Curve002
Curve003
showpage
